{
    "name": "dontseehere providers repository",
    "description": "Providers for Learning Purposes",
    "manifestVersion": 1,
    "pluginLists": [
        "https://gitlab.com/krrishkapuryu/bollytest/-/blob/main/build/plugins.json"
    ]
}
